…
``` r
# With increasing number of storeys, there doesn't seem to be an increase in the number of elevators. The majority of buildings have around the same amount of elevators. 
```

## Filter observations in your data according to your own criteria.

``` r
# I'm curious to know if all buildings built after the year 1980 would all have elevators.
apt_buildings %>%
  filter(year_built > 1980)
```

    ## # A tibble: 393 × 37
    ##       id air_conditioning amenities             balconies barrier_free_accessi…¹
    ##    <dbl> <chr>            <chr>                 <chr>     <chr>                 
    ##  1 10385 NONE             <NA>                  YES       YES                   
    ##  2 10386 NONE             Indoor exercise room  YES       NO                    
    ##  3 10389 NONE             <NA>                  YES       YES                   
    ##  4 10392 CENTRAL AIR      Indoor recreation ro… YES       YES                   
    ##  5 10407 NONE             <NA>                  NO        YES                   
    ##  6 10426 CENTRAL AIR      Indoor recreation ro… YES       YES                   
    ##  7 10438 NONE             Indoor recreation ro… NO        YES                   
    ##  8 10444 NONE             <NA>                  YES       YES                   
    ##  9 10446 NONE             Outdoor pool , Indoo… YES       NO                    
    ## 10 10453 INDIVIDUAL UNITS Indoor recreation ro… YES       YES                   
    ## # ℹ 383 more rows
    ## # ℹ abbreviated name: ¹​barrier_free_accessibilty_entr
    ## # ℹ 32 more variables: bike_parking <chr>, exterior_fire_escape <chr>,
    ## #   fire_alarm <chr>, garbage_chutes <chr>, heating_type <chr>, intercom <chr>,
    ## #   laundry_room <chr>, locker_or_storage_room <chr>, no_of_elevators <dbl>,
    ## #   parking_type <chr>, pets_allowed <chr>, prop_management_company_name <chr>,
    ## #   property_type <chr>, rsn <dbl>, separate_gas_meters <chr>, …

``` r
# There were 393 buildings that were built after the year 1980.

apt_buildings %>%
  filter(year_built > 1980, no_of_elevators > 0) # filter out buildings that do not have elevators
```

    ## # A tibble: 339 × 37
    ##       id air_conditioning amenities             balconies barrier_free_accessi…¹
    ##    <dbl> <chr>            <chr>                 <chr>     <chr>                 
    ##  1 10385 NONE             <NA>                  YES       YES                   
    ##  2 10386 NONE             Indoor exercise room  YES       NO                    
    ##  3 10392 CENTRAL AIR      Indoor recreation ro… YES       YES                   
    ##  4 10407 NONE             <NA>                  NO        YES                   
    ##  5 10426 CENTRAL AIR      Indoor recreation ro… YES       YES                   
    ##  6 10438 NONE             Indoor recreation ro… NO        YES                   
    ##  7 10444 NONE             <NA>                  YES       YES                   
    ##  8 10446 NONE             Outdoor pool , Indoo… YES       NO                    
    ##  9 10453 INDIVIDUAL UNITS Indoor recreation ro… YES       YES                   
    ## 10 10454 NONE             <NA>                  NO        NO                    
    ## # ℹ 329 more rows
    ## # ℹ abbreviated name: ¹​barrier_free_accessibilty_entr
    ## # ℹ 32 more variables: bike_parking <chr>, exterior_fire_escape <chr>,
    ## #   fire_alarm <chr>, garbage_chutes <chr>, heating_type <chr>, intercom <chr>,
    ## #   laundry_room <chr>, locker_or_storage_room <chr>, no_of_elevators <dbl>,
    ## #   parking_type <chr>, pets_allowed <chr>, prop_management_company_name <chr>,
    ## #   property_type <chr>, rsn <dbl>, separate_gas_meters <chr>, …
…
