…
``` r
data <- apt_buildings # for data visualization
# Summarizing Option 3: Create a categorical variable with 3 or more groups from an existing numerical variable. 
# Create categorical variables for unit building size based on the number of units in each building ranging from small (less than or equal to 50 units), medium (between 50 to 100 units inclusive), large (between 100 to 300 units inclusive), to very large (greater than or equal to 300 units). 
unit_category <- apt_buildings %>% 
   mutate(unit_size = factor(case_when(no_of_units <= 50 ~ "small",
                                 no_of_units <= 100 ~ "medium",
                                 no_of_units <= 300 ~ "large",
                                 TRUE ~ "very large"),
          levels = c('small', 'medium', 'large', 'very large')))
print(unit_category)
```

    ## # A tibble: 3,455 × 38
    ##       id air_conditioning amenities             balconies barrier_free_accessi…¹
    ##    <dbl> <chr>            <chr>                 <chr>     <chr>                 
    ##  1 10359 NONE             Outdoor rec faciliti… YES       YES                   
    ##  2 10360 NONE             Outdoor pool          YES       NO                    
    ##  3 10361 NONE             <NA>                  YES       NO                    
    ##  4 10362 NONE             <NA>                  YES       YES                   
    ##  5 10363 NONE             <NA>                  NO        NO                    
    ##  6 10364 NONE             <NA>                  NO        NO                    
    ##  7 10365 NONE             <NA>                  NO        YES                   
    ##  8 10366 CENTRAL AIR      Indoor pool , Indoor… YES       NO                    
    ##  9 10367 NONE             <NA>                  YES       YES                   
    ## 10 10368 NONE             Indoor recreation ro… YES       YES                   
    ## # ℹ 3,445 more rows
    ## # ℹ abbreviated name: ¹​barrier_free_accessibilty_entr
    ## # ℹ 33 more variables: bike_parking <chr>, exterior_fire_escape <chr>,
    ## #   fire_alarm <chr>, garbage_chutes <chr>, heating_type <chr>, intercom <chr>,
    ## #   laundry_room <chr>, locker_or_storage_room <chr>, no_of_elevators <dbl>,
    ## #   parking_type <chr>, pets_allowed <chr>, prop_management_company_name <chr>,
    ## #   property_type <chr>, rsn <dbl>, separate_gas_meters <chr>, …
…
``` r
# Summarizing option 1: Compute the *range*, *mean*, and *two other summary statistics* of **one numerical variable** across the groups of **one categorical variable** from your data.
# Compute the range, mean, median, and standard deviation of number of units 
ward_stat <- apt_buildings %>%
  group_by(ward) %>%
  summarise(mean = mean(no_of_units),
            range = max(no_of_units) - min(no_of_units),
            median = median(no_of_units),
            sd = sd(no_of_units, na.rm = TRUE)
            )
print(ward_stat)
```

    ## # A tibble: 26 × 5
    ##    ward   mean range median    sd
    ##    <chr> <dbl> <dbl>  <dbl> <dbl>
    ##  1 01    118.    403     95  89.8
    ##  2 02     91.8   355     77  77.0
    ##  3 03     55.8   530     33  71.3
    ##  4 04     82.7   628     47  97.3
    ##  5 05     77.2   410     39  90.6
    ##  6 06     66.2   379     40  70.3
    ##  7 07    143     466    126 108. 
    ##  8 08     60.2   448     32  70.4
    ##  9 09     66.9   346     28  84.2
    ## 10 10    133.    525    119 117. 
    ## # ℹ 16 more rows
…
